{"total": 360715, "offset": 0, "next": 5, "data": [{"paperId": "c8b25fab5608c3e033d34b4483ec47e68ba109b7", "externalIds": {"DBLP": "conf/iccv/LiuL00W0LG21", "ArXiv": "2103.14030", "DOI": "10.1109/ICCV48922.2021.00986", "CorpusId": 232352874}, "url": "https://www.semanticscholar.org/paper/c8b25fab5608c3e033d34b4483ec47e68ba109b7", "title": "Swin Transformer: Hierarchical Vision Transformer using Shifted Windows", "year": 2021, "openAccessPdf": {"url": "http://arxiv.org/pdf/2103.14030", "status": "GREEN", "license": null, "disclaimer": "Notice: Paper or abstract available at https://arxiv.org/abs/2103.14030, which is subject to the license by the author or copyright owner provided with this content. Please go to the source to verify the license and copyright information for your use."}, "publicationDate": null, "authors": [{"authorId": "2109371439", "name": "Ze Liu"}, {"authorId": "51091819", "name": "Yutong Lin"}, {"authorId": "2112823372", "name": "Yue Cao"}, {"authorId": "1823518756", "name": "Han Hu"}, {"authorId": "2107995927", "name": "Yixuan Wei"}, {"authorId": "2148904543", "name": "Zheng Zhang"}, {"authorId": "145676588", "name": "Stephen Lin"}, {"authorId": "2261753424", "name": "B. Guo"}], "abstract": "This paper presents a new vision Transformer, called Swin Transformer, that capably serves as a general-purpose backbone for computer vision. Challenges in adapting Transformer from language to vision arise from differences between the two domains, such as large variations in the scale of visual entities and the high resolution of pixels in images compared to words in text. To address these differences, we propose a hierarchical Transformer whose representation is computed with Shifted windows. The shifted windowing scheme brings greater efficiency by limiting self-attention computation to non-overlapping local windows while also allowing for cross-window connection. This hierarchical architecture has the flexibility to model at various scales and has linear computational complexity with respect to image size. These qualities of Swin Transformer make it compatible with a broad range of vision tasks, including image classification (87.3 top-1 accuracy on ImageNet-1K) and dense prediction tasks such as object detection (58.7 box AP and 51.1 mask AP on COCO test-dev) and semantic segmentation (53.5 mIoU on ADE20K val). Its performance surpasses the previous state-of-the-art by a large margin of +2.7 box AP and +2.6 mask AP on COCO, and +3.2 mIoU on ADE20K, demonstrating the potential of Transformer-based models as vision backbones. The hierarchical design and the shifted window approach also prove beneficial for all-MLP architectures. The code and models are publicly available at https://github.com/microsoft/Swin-Transformer."}, {"paperId": "5b9d8bcc46b766b47389c912a8e026f81b91b0d8", "externalIds": {"MAG": "3111507638", "ArXiv": "2012.07436", "DBLP": "conf/aaai/ZhouZPZLXZ21", "DOI": "10.1609/aaai.v35i12.17325", "CorpusId": 229156802}, "url": "https://www.semanticscholar.org/paper/5b9d8bcc46b766b47389c912a8e026f81b91b0d8", "title": "Informer: Beyond Efficient Transformer for Long Sequence Time-Series Forecasting", "year": 2020, "openAccessPdf": {"url": "https://ojs.aaai.org/index.php/AAAI/article/download/17325/17132", "status": "GOLD", "license": null, "disclaimer": "Notice: Paper or abstract available at https://arxiv.org/abs/2012.07436, which is subject to the license by the author or copyright owner provided with this content. Please go to the source to verify the license and copyright information for your use."}, "publicationDate": "2020-12-14", "authors": [{"authorId": "2395143", "name": "Haoyi Zhou"}, {"authorId": "2437353", "name": "Shanghang Zhang"}, {"authorId": "1752536568", "name": "Jieqi Peng"}, {"authorId": "2108433304", "name": "Shuai Zhang"}, {"authorId": "1492113939", "name": "Jianxin Li"}, {"authorId": "144467554", "name": "Hui Xiong"}, {"authorId": "2108278607", "name": "Wan Zhang"}], "abstract": "Many real-world applications require the prediction of long sequence time-series, such as electricity consumption planning. Long sequence time-series forecasting (LSTF) demands a high prediction capacity of the model, which is the ability to capture precise long-range dependency coupling between output and input efficiently. Recent studies have shown the potential of Transformer to increase the prediction capacity. However, there are several severe issues with Transformer that prevent it from being directly applicable to LSTF, including quadratic time complexity, high memory usage, and inherent limitation of the encoder-decoder architecture. To address these issues, we design an efficient transformer-based model for LSTF, named Informer, with three distinctive characteristics: (i) a ProbSparse self-attention mechanism, which achieves O(L log L) in time complexity and memory usage, and has comparable performance on sequences' dependency alignment. (ii) the self-attention distilling highlights dominating attention by halving cascading layer input, and efficiently handles extreme long input sequences. (iii) the generative style decoder, while conceptually simple, predicts the long time-series sequences at one forward operation rather than a step-by-step way, which drastically improves the inference speed of long-sequence predictions. Extensive experiments on four large-scale datasets demonstrate that Informer significantly outperforms existing methods and provides a new solution to the LSTF problem."}, {"paperId": "925ad2897d1b5decbea320d07e99afa9110e09b2", "externalIds": {"DBLP": "journals/corr/abs-2004-05150", "MAG": "3015468748", "ArXiv": "2004.05150", "CorpusId": 215737171}, "url": "https://www.semanticscholar.org/paper/925ad2897d1b5decbea320d07e99afa9110e09b2", "title": "Longformer: The Long-Document Transformer", "year": 2020, "openAccessPdf": {"url": "", "status": null, "license": null, "disclaimer": "Notice: Paper or abstract available at https://arxiv.org/abs/2004.05150, which is subject to the license by the author or copyright owner provided with this content. Please go to the source to verify the license and copyright information for your use."}, "publicationDate": "2020-04-10", "authors": [{"authorId": "46181066", "name": "Iz Beltagy"}, {"authorId": "39139825", "name": "Matthew E. Peters"}, {"authorId": "2527954", "name": "Arman Cohan"}], "abstract": "Transformer-based models are unable to process long sequences due to their self-attention operation, which scales quadratically with the sequence length. To address this limitation, we introduce the Longformer with an attention mechanism that scales linearly with sequence length, making it easy to process documents of thousands of tokens or longer. Longformer's attention mechanism is a drop-in replacement for the standard self-attention and combines a local windowed attention with a task motivated global attention. Following prior work on long-sequence transformers, we evaluate Longformer on character-level language modeling and achieve state-of-the-art results on text8 and enwik8. In contrast to most prior work, we also pretrain Longformer and finetune it on a variety of downstream tasks. Our pretrained Longformer consistently outperforms RoBERTa on long document tasks and sets new state-of-the-art results on WikiHop and TriviaQA. We finally introduce the Longformer-Encoder-Decoder (LED), a Longformer variant for supporting long document generative sequence-to-sequence tasks, and demonstrate its effectiveness on the arXiv summarization dataset."}, {"paperId": "1e88d5afe19aea324d33541f60a90b7036894c32", "externalIds": {"DBLP": "journals/corr/abs-2111-09881", "ArXiv": "2111.09881", "DOI": "10.1109/CVPR52688.2022.00564", "CorpusId": 244346144}, "url": "https://www.semanticscholar.org/paper/1e88d5afe19aea324d33541f60a90b7036894c32", "title": "Restormer: Efficient Transformer for High-Resolution Image Restoration", "year": 2021, "openAccessPdf": {"url": "https://arxiv.org/pdf/2111.09881", "status": "GREEN", "license": null, "disclaimer": "Notice: Paper or abstract available at https://arxiv.org/abs/2111.09881, which is subject to the license by the author or copyright owner provided with this content. Please go to the source to verify the license and copyright information for your use."}, "publicationDate": "2021-11-18", "authors": [{"authorId": "3323621", "name": "Syed Waqas Zamir"}, {"authorId": "153150198", "name": "Aditya Arora"}, {"authorId": "152973423", "name": "Salman Hameed Khan"}, {"authorId": "145684318", "name": "Munawar Hayat"}, {"authorId": "2358803", "name": "F. Khan"}, {"authorId": "37144787", "name": "Ming-Hsuan Yang"}], "abstract": "Since convolutional neural networks (CNNs) perform well at learning generalizable image priors from large-scale data, these models have been extensively applied to image restoration and related tasks. Recently, another class of neural architectures, Transformers, have shown significant performance gains on natural language and high-level vision tasks. While the Transformer model mitigates the shortcomings of CNNs (i.e., limited receptive field and inadaptability to input content), its computational complexity grows quadratically with the spatial resolution, therefore making it infeasible to apply to most image restoration tasks involving high-resolution images. In this work, we propose an efficient Transformer model by making several key designs in the building blocks (multi-head attention and feed-forward network) such that it can capture long-range pixel interactions, while still remaining applicable to large images. Our model, named Restoration Transformer (Restormer), achieves state-of-the-art results on several image restoration tasks, including image deraining, single-image motion deblurring, defocus deblurring (single-image and dual-pixel data), and image denoising (Gaussian grayscale/color denoising, and real image denoising). The source code and pre-trained models are available at https://github.com/swz30/Restormer."}, {"paperId": "7a9a708ca61c14886aa0dcd6d13dac7879713f5f", "externalIds": {"DBLP": "conf/iccvw/LiangCSZGT21", "ArXiv": "2108.10257", "DOI": "10.1109/ICCVW54120.2021.00210", "CorpusId": 237266491}, "url": "https://www.semanticscholar.org/paper/7a9a708ca61c14886aa0dcd6d13dac7879713f5f", "title": "SwinIR: Image Restoration Using Swin Transformer", "year": 2021, "openAccessPdf": {"url": "https://arxiv.org/pdf/2108.10257", "status": "GREEN", "license": null, "disclaimer": "Notice: Paper or abstract available at https://arxiv.org/abs/2108.10257, which is subject to the license by the author or copyright owner provided with this content. Please go to the source to verify the license and copyright information for your use."}, "publicationDate": "2021-08-23", "authors": [{"authorId": "145270228", "name": "Jingyun Liang"}, {"authorId": "2109811424", "name": "Jie Cao"}, {"authorId": "15839174", "name": "Guolei Sun"}, {"authorId": "144110274", "name": "K. Zhang"}, {"authorId": "1681236", "name": "L. Gool"}, {"authorId": "1732855", "name": "R. Timofte"}], "abstract": "Image restoration is a long-standing low-level vision problem that aims to restore high-quality images from low-quality images (e.g., downscaled, noisy and compressed images). While state-of-the-art image restoration methods are based on convolutional neural networks, few attempts have been made with Transformers which show impressive performance on high-level vision tasks. In this paper, we propose a strong baseline model SwinIR for image restoration based on the Swin Transformer. SwinIR consists of three parts: shallow feature extraction, deep feature extraction and high-quality image reconstruction. In particular, the deep feature extraction module is composed of several residual Swin Transformer blocks (RSTB), each of which has several Swin Transformer layers together with a residual connection. We conduct experiments on three representative tasks: image super-resolution (including classical, lightweight and real-world image super-resolution), image denoising (including grayscale and color image denoising) and JPEG compression artifact reduction. Experimental results demonstrate that SwinIR outperforms state-of-the-art methods on different tasks by up to 0.14\u223c0.45dB, while the total number of parameters can be reduced by up to 67%."}]}
